
          ***  ********
          ***  ***    ***
          ***  ***     ***
          ***  ***      ***
     ********  ***       ***
   ***    ***  ***       ***
  ***     ***  ***      ***
  ***     ***  ***     ***
   ***    ***  ***    ***
     ********  ********

     Website created by
     dinsmoredesign.com

     Built with love and
    Jekyll @ jekyllrb.com
